lab2/Tutorial_lab2/simulation/qsim/TutLab2.msim.vcd
$comment
	File created using the following command:
		vcd file TutLab2.msim.vcd -direction
$end
$date
	Mon Feb 06 12:04:20 2023
$end
$version
	ModelSim Version 10.5b
$end
$timescale
	1ps
$end

$scope module TutLab2_vlg_vec_tst $end
$var reg 3 ! KEY [2:0] $end
$var reg 1 " clock_in $end
$var wire 1 # count_out [19] $end
$var wire 1 $ count_out [18] $end
$var wire 1 % count_out [17] $end
$var wire 1 & count_out [16] $end
$var wire 1 ' count_out [15] $end
$var wire 1 ( count_out [14] $end
$var wire 1 ) count_out [13] $end
$var wire 1 * count_out [12] $end
$var wire 1 + count_out [11] $end
$var wire 1 , count_out [10] $end
$var wire 1 - count_out [9] $end
$var wire 1 . count_out [8] $end
$var wire 1 / count_out [7] $end
$var wire 1 0 count_out [6] $end
$var wire 1 1 count_out [5] $end
$var wire 1 2 count_out [4] $end
$var wire 1 3 count_out [3] $end
$var wire 1 4 count_out [2] $end
$var wire 1 5 count_out [1] $end
$var wire 1 6 count_out [0] $end

$scope module i1 $end
$var wire 1 7 gnd $end
$var wire 1 8 vcc $end
$var wire 1 9 unknown $end
$var tri1 1 : devclrn $end
$var tri1 1 ; devpor $end
$var tri1 1 < devoe $end
$var wire 1 = ~QUARTUS_CREATED_GND~I_combout $end
$var wire 1 > clock_in~input_o $end
$var wire 1 ? clock_in~inputCLKENA0_outclk $end
$var wire 1 @ comb_3|ms_count[0]~1_combout $end
$var wire 1 A KEY[0]~input_o $end
$var wire 1 B KEY[1]~input_o $end
$var wire 1 C KEY[2]~input_o $end
$var wire 1 D comb_3|count_state~0_combout $end
$var wire 1 E comb_3|count_state~q $end
$var wire 1 F comb_3|ms_count[0]~0_combout $end
$var wire 1 G comb_3|Add0~1_sumout $end
$var wire 1 H comb_3|Add0~2 $end
$var wire 1 I comb_3|Add0~5_sumout $end
$var wire 1 J comb_3|Add0~6 $end
$var wire 1 K comb_3|Add0~9_sumout $end
$var wire 1 L comb_3|Add0~10 $end
$var wire 1 M comb_3|Add0~13_sumout $end
$var wire 1 N comb_3|Add0~14 $end
$var wire 1 O comb_3|Add0~17_sumout $end
$var wire 1 P comb_3|Add0~18 $end
$var wire 1 Q comb_3|Add0~21_sumout $end
$var wire 1 R comb_3|Add0~22 $end
$var wire 1 S comb_3|Add0~25_sumout $end
$var wire 1 T comb_3|Add0~26 $end
$var wire 1 U comb_3|Add0~29_sumout $end
$var wire 1 V comb_3|Add0~30 $end
$var wire 1 W comb_3|Add0~33_sumout $end
$var wire 1 X comb_3|Add0~34 $end
$var wire 1 Y comb_3|Add0~37_sumout $end
$var wire 1 Z comb_3|Add0~38 $end
$var wire 1 [ comb_3|Add0~41_sumout $end
$var wire 1 \ comb_3|Add0~42 $end
$var wire 1 ] comb_3|Add0~45_sumout $end
$var wire 1 ^ comb_3|Add0~46 $end
$var wire 1 _ comb_3|Add0~49_sumout $end
$var wire 1 ` comb_3|Add0~50 $end
$var wire 1 a comb_3|Add0~53_sumout $end
$var wire 1 b comb_3|Add0~54 $end
$var wire 1 c comb_3|Add0~57_sumout $end
$var wire 1 d comb_3|Add0~58 $end
$var wire 1 e comb_3|Add0~61_sumout $end
$var wire 1 f comb_3|Add0~62 $end
$var wire 1 g comb_3|Add0~65_sumout $end
$var wire 1 h comb_3|Add0~66 $end
$var wire 1 i comb_3|Add0~69_sumout $end
$var wire 1 j comb_3|Add0~70 $end
$var wire 1 k comb_3|Add0~73_sumout $end
$var wire 1 l comb_3|ms_count [19] $end
$var wire 1 m comb_3|ms_count [18] $end
$var wire 1 n comb_3|ms_count [17] $end
$var wire 1 o comb_3|ms_count [16] $end
$var wire 1 p comb_3|ms_count [15] $end
$var wire 1 q comb_3|ms_count [14] $end
$var wire 1 r comb_3|ms_count [13] $end
$var wire 1 s comb_3|ms_count [12] $end
$var wire 1 t comb_3|ms_count [11] $end
$var wire 1 u comb_3|ms_count [10] $end
$var wire 1 v comb_3|ms_count [9] $end
$var wire 1 w comb_3|ms_count [8] $end
$var wire 1 x comb_3|ms_count [7] $end
$var wire 1 y comb_3|ms_count [6] $end
$var wire 1 z comb_3|ms_count [5] $end
$var wire 1 { comb_3|ms_count [4] $end
$var wire 1 | comb_3|ms_count [3] $end
$var wire 1 } comb_3|ms_count [2] $end
$var wire 1 ~ comb_3|ms_count [1] $end
$var wire 1 !! comb_3|ms_count [0] $end
$upscope $end
$upscope $end
$enddefinitions $end
#0
$dumpvars
b101 !
0"
06
05
04
03
02
01
00
0/
0.
0-
0,
0+
0*
0)
0(
0'
0&
0%
0$
0#
07
18
x9
1:
1;
1<
0=
0>
0?
1@
1A
0B
1C
1D
0E
0F
0G
0H
0I
0J
0K
0L
0M
0N
0O
0P
0Q
0R
0S
0T
0U
0V
0W
0X
0Y
0Z
0[
0\
0]
0^
0_
0`
0a
0b
0c
0d
0e
0f
0g
0h
0i
0j
0k
0!!
0~
0}
0|
0{
0z
0y
0x
0w
0v
0u
0t
0s
0r
0q
0p
0o
0n
0m
0l
$end
#500
1"
1>
1?
1E
#1000
0"
0>
0?
#1500
1"
1>
1?
#2000
0"
0>
0?
#2500
1"
1>
1?
#3000
0"
0>
0?
#3500
1"
1>
1?
#4000
0"
0>
0?
#4500
1"
1>
1?
#5000
0"
0>
0?
#5500
1"
1>
1?
#6000
0"
0>
0?
#6500
1"
1>
1?
#7000
0"
0>
0?
#7500
1"
1>
1?
#8000
0"
0>
0?
#8500
1"
1>
1?
#9000
0"
0>
0?
#9500
1"
1>
1?
#10000
b111 !
0"
1B
0>
0?
1F
#10500
1"
1>
1?
1!!
16
0@
1G
#11000
0"
0>
0?
#11500
1"
1>
1?
1~
0!!
06
15
1@
#12000
0"
0>
0?
#12500
1"
1>
1?
1!!
16
1H
0@
0G
1I
#13000
0"
0>
0?
#13500
1"
1>
1?
1}
0~
0!!
06
05
14
0H
1@
1J
0I
0J
1I
1K
0K
#14000
0"
0>
0?
#14500
1"
1>
1?
1!!
16
0@
1G
#15000
0"
0>
0?
#15500
1"
1>
1?
1~
0!!
06
15
1@
#16000
0"
0>
0?
#16500
1"
1>
1?
1!!
16
1H
0@
0G
1J
0I
1K
#17000
0"
0>
0?
#17500
1"
1>
1?
1|
0}
0~
0!!
06
05
04
13
0H
1@
0J
1L
1I
0K
0L
0I
1K
1M
0M
#18000
0"
0>
0?
#18500
1"
1>
1?
1!!
16
0@
1G
#19000
0"
0>
0?
#19500
1"
1>
1?
1~
0!!
06
15
1@
#20000
b110 !
0"
0A
0>
0?
0~
0|
03
05
0K
0G
#20500
1"
1>
1?
#21000
0"
0>
0?
#21500
1"
1>
1?
#22000
0"
0>
0?
#22500
1"
1>
1?
#23000
0"
0>
0?
#23500
1"
1>
1?
#24000
0"
0>
0?
#24500
1"
1>
1?
#25000
0"
0>
0?
#25500
1"
1>
1?
#26000
0"
0>
0?
#26500
1"
1>
1?
#27000
0"
0>
0?
#27500
1"
1>
1?
#28000
0"
0>
0?
#28500
1"
1>
1?
#29000
0"
0>
0?
#29500
1"
1>
1?
#30000
b111 !
0"
1A
0>
0?
#30500
1"
1>
1?
1!!
16
0@
1G
#31000
0"
0>
0?
#31500
1"
1>
1?
1~
0!!
06
15
1@
#32000
0"
0>
0?
#32500
1"
1>
1?
1!!
16
1H
0@
0G
1I
#33000
0"
0>
0?
#33500
1"
1>
1?
1}
0~
0!!
06
05
14
0H
1@
1J
0I
0J
1I
1K
0K
#34000
0"
0>
0?
#34500
1"
1>
1?
1!!
16
0@
1G
#35000
0"
0>
0?
#35500
1"
1>
1?
1~
0!!
06
15
1@
#36000
0"
0>
0?
#36500
1"
1>
1?
1!!
16
1H
0@
0G
1J
0I
1K
#37000
0"
0>
0?
#37500
1"
1>
1?
1|
0}
0~
0!!
06
05
04
13
0H
1@
0J
1L
1I
0K
0L
0I
1K
1M
0M
#38000
0"
0>
0?
#38500
1"
1>
1?
1!!
16
0@
1G
#39000
0"
0>
0?
#39500
1"
1>
1?
1~
0!!
06
15
1@
#40000
0"
0>
0?
#40500
1"
1>
1?
1!!
16
1H
0@
0G
1I
#41000
0"
0>
0?
#41500
1"
1>
1?
1}
0~
0!!
06
05
14
0H
1@
1J
0I
0J
1L
1I
0K
0L
1K
1M
0M
#42000
0"
0>
0?
#42500
1"
1>
1?
1!!
16
0@
1G
#43000
0"
0>
0?
#43500
1"
1>
1?
1~
0!!
06
15
1@
#44000
0"
0>
0?
#44500
1"
1>
1?
1!!
16
1H
0@
0G
1J
0I
1L
0K
1M
#45000
0"
0>
0?
#45500
1"
1>
1?
1{
0|
0}
0~
0!!
06
05
04
03
12
0H
1@
0J
0L
1N
1I
1K
0M
0N
0I
0K
1M
1O
0O
#46000
0"
0>
0?
#46500
1"
1>
1?
1!!
16
0@
1G
#47000
0"
0>
0?
#47500
1"
1>
1?
1~
0!!
06
15
1@
#48000
0"
0>
0?
#48500
1"
1>
1?
1!!
16
1H
0@
0G
1I
#49000
0"
0>
0?
#49500
1"
1>
1?
1}
0~
0!!
06
05
14
0H
1@
1J
0I
0J
1I
1K
0K
#50000
b11 !
0"
0C
0>
0?
0F
0D
#50500
1"
1>
1?
0E
#51000
0"
0>
0?
#51500
1"
1>
1?
#52000
0"
0>
0?
#52500
1"
1>
1?
#53000
0"
0>
0?
#53500
1"
1>
1?
#54000
0"
0>
0?
#54500
1"
1>
1?
#55000
0"
0>
0?
#55500
1"
1>
1?
#56000
0"
0>
0?
#56500
1"
1>
1?
#57000
0"
0>
0?
#57500
1"
1>
1?
#58000
0"
0>
0?
#58500
1"
1>
1?
#59000
0"
0>
0?
#59500
1"
1>
1?
#60000
b111 !
0"
1C
0>
0?
#60500
1"
1>
1?
#61000
0"
0>
0?
#61500
1"
1>
1?
#62000
0"
0>
0?
#62500
1"
1>
1?
#63000
0"
0>
0?
#63500
1"
1>
1?
#64000
0"
0>
0?
#64500
1"
1>
1?
#65000
0"
0>
0?
#65500
1"
1>
1?
#66000
0"
0>
0?
#66500
1"
1>
1?
#67000
0"
0>
0?
#67500
1"
1>
1?
#68000
0"
0>
0?
#68500
1"
1>
1?
#69000
0"
0>
0?
#69500
1"
1>
1?
#70000
b101 !
0"
0B
0>
0?
1D
#70500
1"
1>
1?
1E
#71000
0"
0>
0?
#71500
1"
1>
1?
#72000
0"
0>
0?
#72500
1"
1>
1?
#73000
0"
0>
0?
#73500
1"
1>
1?
#74000
0"
0>
0?
#74500
1"
1>
1?
#75000
0"
0>
0?
#75500
1"
1>
1?
#76000
0"
0>
0?
#76500
1"
1>
1?
#77000
0"
0>
0?
#77500
1"
1>
1?
#78000
0"
0>
0?
#78500
1"
1>
1?
#79000
0"
0>
0?
#79500
1"
1>
1?
#80000
b111 !
0"
1B
0>
0?
1F
#80500
1"
1>
1?
1!!
16
0@
1G
#81000
0"
0>
0?
#81500
1"
1>
1?
1~
0!!
06
15
1@
#82000
0"
0>
0?
#82500
1"
1>
1?
1!!
16
1H
0@
0G
1J
0I
1K
#83000
0"
0>
0?
#83500
1"
1>
1?
1|
0}
0~
0!!
06
05
04
13
0H
1@
0J
1L
1I
0K
0L
1N
0I
1K
0M
0N
1M
1O
0O
#84000
0"
0>
0?
#84500
1"
1>
1?
1!!
16
0@
1G
#85000
0"
0>
0?
#85500
1"
1>
1?
1~
0!!
06
15
1@
#86000
0"
0>
0?
#86500
1"
1>
1?
1!!
16
1H
0@
0G
1I
#87000
0"
0>
0?
#87500
1"
1>
1?
1}
0~
0!!
06
05
14
0H
1@
1J
0I
0J
1L
1I
0K
0L
1N
1K
0M
0N
1M
1O
0O
#88000
0"
0>
0?
#88500
1"
1>
1?
1!!
16
0@
1G
#89000
0"
0>
0?
#89500
1"
1>
1?
1~
0!!
06
15
1@
#90000
0"
0>
0?
#90500
1"
1>
1?
1!!
16
1H
0@
0G
1J
0I
1L
0K
1N
0M
1O
#91000
0"
0>
0?
#91500
1"
1>
1?
1z
0{
0|
0}
0~
0!!
06
05
04
03
02
11
0H
1@
0J
0L
0N
1P
1I
1K
1M
0O
0P
0I
0K
0M
1O
1Q
0Q
#92000
0"
0>
0?
#92500
1"
1>
1?
1!!
16
0@
1G
#93000
0"
0>
0?
#93500
1"
1>
1?
1~
0!!
06
15
1@
#94000
0"
0>
0?
#94500
1"
1>
1?
1!!
16
1H
0@
0G
1I
#95000
0"
0>
0?
#95500
1"
1>
1?
1}
0~
0!!
06
05
14
0H
1@
1J
0I
0J
1I
1K
0K
#96000
0"
0>
0?
#96500
1"
1>
1?
1!!
16
0@
1G
#97000
0"
0>
0?
#97500
1"
1>
1?
1~
0!!
06
15
1@
#98000
0"
0>
0?
#98500
1"
1>
1?
1!!
16
1H
0@
0G
1J
0I
1K
#99000
0"
0>
0?
#99500
1"
1>
1?
1|
0}
0~
0!!
06
05
04
13
0H
1@
0J
1L
1I
0K
0L
0I
1K
1M
0M
