lab1/lab1part1/simulation/qsim/lab1part1.msim.vcd
$comment
	File created using the following command:
		vcd file lab1part1.msim.vcd -direction
$end
$date
	Mon Jan 30 12:40:36 2023
$end
$version
	ModelSim Version 10.5b
$end
$timescale
	1ps
$end

$scope module lab1part1_vlg_vec_tst $end
$var reg 1 ! clk $end
$var reg 1 " enable $end
$var reg 1 # reset $end
$var wire 1 $ count [3] $end
$var wire 1 % count [2] $end
$var wire 1 & count [1] $end
$var wire 1 ' count [0] $end

$scope module i1 $end
$var wire 1 ( gnd $end
$var wire 1 ) vcc $end
$var wire 1 * unknown $end
$var tri1 1 + devclrn $end
$var tri1 1 , devpor $end
$var tri1 1 - devoe $end
$var wire 1 . ~QUARTUS_CREATED_GND~I_combout $end
$var wire 1 / clk~input_o $end
$var wire 1 0 clk~inputCLKENA0_outclk $end
$var wire 1 1 reset~input_o $end
$var wire 1 2 count~0_combout $end
$var wire 1 3 enable~input_o $end
$var wire 1 4 count[0]~reg0_q $end
$var wire 1 5 count~1_combout $end
$var wire 1 6 count[1]~reg0_q $end
$var wire 1 7 count~2_combout $end
$var wire 1 8 count[2]~reg0_q $end
$var wire 1 9 count~3_combout $end
$var wire 1 : count[3]~reg0_q $end
$upscope $end
$upscope $end
$enddefinitions $end
#0
$dumpvars
0!
0"
0#
0'
0&
0%
0$
0(
1)
x*
1+
1,
1-
0.
0/
00
01
12
03
04
05
06
07
08
09
0:
$end
#2500
1!
1/
10
#5000
0!
0/
00
#7500
1!
1/
10
#10000
0!
0/
00
#12500
1!
1/
10
#15000
0!
0/
00
#17500
1!
1/
10
#20000
1"
0!
13
0/
00
#22500
1!
1/
10
14
1'
15
02
#25000
0!
0/
00
#27500
1!
1/
10
16
04
0'
1&
12
#30000
0!
0/
00
#32500
1!
1/
10
14
1'
17
05
02
#35000
0!
0/
00
#37500
1!
1/
10
18
06
04
0'
0&
1%
12
#40000
1#
0!
11
0/
00
07
02
#42500
1!
1/
10
08
0%
#45000
0!
0/
00
#47500
1!
1/
10
#50000
0#
0!
01
0/
00
12
#52500
1!
1/
10
14
1'
15
02
#55000
0!
0/
00
#57500
1!
1/
10
16
04
0'
1&
12
#60000
0!
0/
00
#62500
1!
1/
10
14
1'
17
05
02
#65000
0!
0/
00
#67500
1!
1/
10
18
06
04
0'
0&
1%
12
#70000
0!
0/
00
#72500
1!
1/
10
14
1'
15
02
#75000
0!
0/
00
#77500
1!
1/
10
16
04
0'
1&
12
#80000
0!
0/
00
#82500
1!
1/
10
14
1'
19
07
05
02
#85000
0!
0/
00
#87500
1!
1/
10
1:
08
06
04
0'
0&
0%
1$
12
#90000
0!
0/
00
#92500
1!
1/
10
14
1'
15
02
#95000
0!
0/
00
#97500
1!
1/
10
16
04
0'
1&
12
