lab2/lab2Test/simulation/qsim/lab2Test.msim.vcd
$comment
	File created using the following command:
		vcd file lab2Test.msim.vcd -direction
$end
$date
	Thu Feb 09 15:41:33 2023
$end
$version
	ModelSim Version 10.5b
$end
$timescale
	1ps
$end

$scope module lab2Test_vlg_vec_tst $end
$var reg 1 ! clk_in $end
$var reg 1 " reset $end
$var reg 1 # resume $end
$var wire 1 $ rand [13] $end
$var wire 1 % rand [12] $end
$var wire 1 & rand [11] $end
$var wire 1 ' rand [10] $end
$var wire 1 ( rand [9] $end
$var wire 1 ) rand [8] $end
$var wire 1 * rand [7] $end
$var wire 1 + rand [6] $end
$var wire 1 , rand [5] $end
$var wire 1 - rand [4] $end
$var wire 1 . rand [3] $end
$var wire 1 / rand [2] $end
$var wire 1 0 rand [1] $end
$var wire 1 1 rand [0] $end
$var wire 1 2 rand_ready $end

$scope module i1 $end
$var wire 1 3 gnd $end
$var wire 1 4 vcc $end
$var wire 1 5 unknown $end
$var tri1 1 6 devclrn $end
$var tri1 1 7 devpor $end
$var tri1 1 8 devoe $end
$var wire 1 9 ~QUARTUS_CREATED_GND~I_combout $end
$var wire 1 : clk_in~input_o $end
$var wire 1 ; clk_in~inputCLKENA0_outclk $end
$var wire 1 < resume~input_o $end
$var wire 1 = comb_3|reg_values[12]~feeder_combout $end
$var wire 1 > reset~input_o $end
$var wire 1 ? comb_3|reg_values[12]~0_combout $end
$var wire 1 @ comb_3|reg_values[5]~feeder_combout $end
$var wire 1 A comb_3|LessThan0~1_combout $end
$var wire 1 B comb_3|LessThan0~2_combout $end
$var wire 1 C comb_3|reg_values~2_combout $end
$var wire 1 D comb_3|LessThan0~0_combout $end
$var wire 1 E comb_3|enable~0_combout $end
$var wire 1 F comb_3|rnd_ready~1_combout $end
$var wire 1 G comb_3|enable~q $end
$var wire 1 H comb_3|reg_values~3_combout $end
$var wire 1 I comb_3|reg_values[0]~1_combout $end
$var wire 1 J comb_3|reg_values[0]~feeder_combout $end
$var wire 1 K comb_3|random[0]~1_combout $end
$var wire 1 L comb_3|random[0]~0_combout $end
$var wire 1 M comb_3|random[1]~2_combout $end
$var wire 1 N comb_3|random[2]~3_combout $end
$var wire 1 O comb_3|random[3]~4_combout $end
$var wire 1 P comb_3|random[4]~5_combout $end
$var wire 1 Q comb_3|random[5]~6_combout $end
$var wire 1 R comb_3|random[6]~7_combout $end
$var wire 1 S comb_3|random[7]~8_combout $end
$var wire 1 T comb_3|random[8]~9_combout $end
$var wire 1 U comb_3|random[9]~10_combout $end
$var wire 1 V comb_3|random[10]~11_combout $end
$var wire 1 W comb_3|random[11]~12_combout $end
$var wire 1 X comb_3|rnd_ready~0_combout $end
$var wire 1 Y comb_3|rnd_ready~q $end
$var wire 1 Z comb_3|random [13] $end
$var wire 1 [ comb_3|random [12] $end
$var wire 1 \ comb_3|random [11] $end
$var wire 1 ] comb_3|random [10] $end
$var wire 1 ^ comb_3|random [9] $end
$var wire 1 _ comb_3|random [8] $end
$var wire 1 ` comb_3|random [7] $end
$var wire 1 a comb_3|random [6] $end
$var wire 1 b comb_3|random [5] $end
$var wire 1 c comb_3|random [4] $end
$var wire 1 d comb_3|random [3] $end
$var wire 1 e comb_3|random [2] $end
$var wire 1 f comb_3|random [1] $end
$var wire 1 g comb_3|random [0] $end
$var wire 1 h comb_3|reg_values [13] $end
$var wire 1 i comb_3|reg_values [12] $end
$var wire 1 j comb_3|reg_values [11] $end
$var wire 1 k comb_3|reg_values [10] $end
$var wire 1 l comb_3|reg_values [9] $end
$var wire 1 m comb_3|reg_values [8] $end
$var wire 1 n comb_3|reg_values [7] $end
$var wire 1 o comb_3|reg_values [6] $end
$var wire 1 p comb_3|reg_values [5] $end
$var wire 1 q comb_3|reg_values [4] $end
$var wire 1 r comb_3|reg_values [3] $end
$var wire 1 s comb_3|reg_values [2] $end
$var wire 1 t comb_3|reg_values [1] $end
$var wire 1 u comb_3|reg_values [0] $end
$upscope $end
$upscope $end
$enddefinitions $end
#0
$dumpvars
0!
1"
1#
01
00
0/
0.
0-
0,
0+
0*
0)
0(
0'
0&
0%
0$
02
03
14
x5
16
17
18
09
0:
0;
1<
0=
1>
1?
0@
1A
0B
1C
0D
0E
0F
0G
1H
1I
1J
1K
0L
1M
1N
1O
1P
1Q
1R
1S
1T
1U
1V
1W
0X
0Y
0g
0f
0e
0d
0c
0b
0a
0`
0_
0^
0]
0\
z[
zZ
0u
0t
0s
0r
0q
0p
0o
0n
0m
0l
0k
0j
0i
zh
$end
#2500
1!
1:
1;
1u
1s
1q
0K
0P
0N
0C
1=
#5000
0!
0:
0;
#7500
1!
1:
1;
1t
1r
0q
1i
1L
0M
1X
1E
1P
0H
0O
#10000
0!
0:
0;
#12500
1!
1:
1;
0s
1G
0r
1j
1Y
1\
1]
1^
1_
1`
1a
1b
1c
1-
1,
1+
1*
1)
1(
1'
1&
12
0W
0?
1O
1N
0L
#15000
0!
0:
0;
#17500
1!
1:
1;
#20000
0#
0!
0<
0:
0;
1F
0G
0Y
02
#22500
1!
1:
1;
#25000
0!
0:
0;
#27500
1!
1:
1;
#30000
1#
0!
1<
0:
0;
0I
0F
1?
1L
0J
#32500
1!
1:
1;
0t
0u
1G
1k
1Y
0\
1d
1e
1/
1.
0&
12
1B
0?
1K
1M
0V
1H
1C
0=
0L
#35000
0!
0:
0;
#37500
1!
1:
1;
#40000
0!
0:
0;
#42500
1!
1:
1;
#45000
0!
0:
0;
#47500
1!
1:
1;
#50000
0#
0!
0<
0:
0;
1F
0G
0Y
02
#52500
1!
1:
1;
#55000
0!
0:
0;
#57500
1!
1:
1;
#60000
1#
0!
1<
0:
0;
1I
0F
1?
1L
1J
#62500
1!
1:
1;
1u
1s
1G
1q
1l
0i
1Y
0]
1f
1g
11
10
0'
12
0L
0A
0?
0K
0U
0P
0N
0C
1=
#65000
0!
0:
0;
#67500
1!
1:
1;
#70000
0#
0!
0<
0:
0;
1F
0G
0Y
02
0X
0E
#72500
1!
1:
1;
#75000
0!
0:
0;
#77500
1!
1:
1;
#80000
1#
0!
1<
0:
0;
0F
1?
#82500
1!
1:
1;
1t
1r
0q
1m
0j
1i
1W
0B
0M
0T
1P
0H
0O
1L
1X
1E
#85000
0!
0:
0;
#87500
1!
1:
1;
0s
1G
0r
1n
0k
1j
1Y
1\
0^
0_
0d
0e
0f
0g
01
00
0/
0.
0)
0(
1&
12
0W
0?
1V
0S
1O
1N
0L
#90000
0#
0!
0<
0:
0;
1F
0G
0Y
02
#92500
1!
1:
1;
#95000
0!
0:
0;
#97500
1!
1:
1;
#100000
1#
0!
1<
0:
0;
0I
0F
1?
1L
0J
#102500
1!
1:
1;
0t
0u
1G
1o
0l
1k
1Y
0\
1]
0`
1d
1e
1/
1.
0*
1'
0&
12
1B
0?
1K
1M
0V
1U
0R
1@
1H
0=
0L
#105000
0!
0:
0;
#107500
1!
1:
1;
#110000
0#
0!
0<
0:
0;
1F
0G
0Y
02
0X
0E
#112500
1!
1:
1;
#115000
0!
0:
0;
#117500
1!
1:
1;
#120000
1#
0!
1<
0:
0;
1I
0F
1?
1J
#122500
1!
1:
1;
1u
1s
1p
0m
1l
0i
0K
0U
1T
0Q
0N
0H
1C
1=
#125000
0!
0:
0;
#127500
1!
1:
1;
1t
0s
1q
0n
1m
0j
1i
1W
0B
0I
0M
0T
1S
0P
1H
1N
1L
0J
1X
1E
#130000
0!
0:
0;
#132500
1!
1:
1;
0t
0u
1s
1G
1r
0o
1n
0k
1j
1Y
1\
0]
1`
0a
0b
0c
0-
0,
0+
1*
0'
1&
12
0W
1D
0?
1K
1M
1V
0S
1R
0@
0O
0N
0H
0=
0L
#135000
0!
0:
0;
#137500
1!
1:
1;
#140000
0#
0!
0<
0:
0;
1F
0G
0Y
02
#142500
1!
1:
1;
#145000
0!
0:
0;
#147500
1!
1:
1;
#150000
1#
0!
1<
0:
0;
0F
1?
1L
#152500
1!
1:
1;
1t
0s
1G
0p
1o
0l
1k
0i
1Y
0\
1]
0`
1a
0d
0e
1f
1g
11
10
0/
0.
1+
0*
1'
0&
12
0L
1B
0?
0M
0V
1U
0R
0C
1@
1Q
1N
